<?xml version="1.0" encoding="iso-8859-1"?>
<!-- Generator: Adobe Illustrator 19.0.0, SVG Export Plug-In . SVG Version: 6.00 Build 0)  -->
<svg xmlns="http://www.w3.org/2000/svg" xmlns:xlink="http://www.w3.org/1999/xlink" version="1.1" id="Layer_1" x="0px" y="0px" viewBox="0 0 512 512" style="enable-background:new 0 0 512 512;" xml:space="preserve" width="512px" height="512px">
<g>
	<g>
		<g>
			<path d="M136.381,56.057h89.156c4.465,0,8.084-3.618,8.084-8.084c0-4.466-3.62-8.084-8.084-8.084h-89.156     c-4.465,0-8.084,3.618-8.084,8.084C128.296,52.439,131.916,56.057,136.381,56.057z" fill="#8bc34a"/>
			<path d="M136.381,91.735h178.312c4.466,0,8.084-3.619,8.084-8.084s-3.619-8.084-8.084-8.084H136.381     c-4.465,0-8.084,3.619-8.084,8.084S131.916,91.735,136.381,91.735z" fill="#8bc34a"/>
			<path d="M136.381,202.885h89.156c4.465,0,8.084-3.618,8.084-8.084c0-4.466-3.62-8.084-8.084-8.084h-89.156     c-4.465,0-8.084,3.618-8.084,8.084C128.296,199.266,131.916,202.885,136.381,202.885z" fill="#8bc34a"/>
			<path d="M136.381,238.565H312.73c4.466,0,8.084-3.618,8.084-8.084c0-4.466-3.619-8.084-8.084-8.084H136.381     c-4.465,0-8.084,3.619-8.084,8.084C128.296,234.945,131.916,238.565,136.381,238.565z" fill="#8bc34a"/>
			<path d="M136.381,349.715h89.156c4.465,0,8.084-3.618,8.084-8.084c0-4.466-3.62-8.084-8.084-8.084h-89.156     c-4.465,0-8.084,3.618-8.084,8.084C128.296,346.096,131.916,349.715,136.381,349.715z" fill="#8bc34a"/>
			<path d="M311.465,369.226H136.381c-4.465,0-8.084,3.618-8.084,8.084c0,4.465,3.62,8.084,8.084,8.084h175.085     c4.466,0,8.084-3.62,8.084-8.084C319.549,372.846,315.931,369.226,311.465,369.226z" fill="#8bc34a"/>
			<path d="M473.678,404.818l-46.964-18.832v-10.313c12.937-7.034,22.75-19.096,26.841-33.537     c15.697-0.082,28.443-12.871,28.443-28.586c0-9.445-4.606-17.831-11.689-23.04v-21.467c0-39.954-32.505-72.46-72.459-72.46     h-5.365c-5.991,0-11.808,0.744-17.379,2.121v-43.789c0-4.466-3.618-8.084-8.084-8.084h-24.01c-4.466,0-8.084,3.619-8.084,8.084     s3.618,8.084,8.084,8.084h15.927v41.848c-21.215,11.131-36.266,32.46-38.588,57.438H16.168v-99.286h299.785     c4.466,0,8.084-3.619,8.084-8.084s-3.618-8.084-8.084-8.084H8.084c-4.465,0-8.084,3.619-8.084,8.084v115.454     c0,4.466,3.62,8.084,8.084,8.084h311.941v11.972c-1.333,0.97-2.579,2.053-3.725,3.235H8.084c-4.465,0-8.084,3.618-8.084,8.084     v115.454c0,4.466,3.62,8.084,8.084,8.084h281.189c-6.831,9.393-11.941,22.051-11.941,38.424v40.197     c0,4.465,3.619,8.094,8.084,8.094h30.539c4.466,0,8.084-3.618,8.084-8.084c0-4.465-3.618-8.084-8.084-8.084h-22.455v-32.122     c0-33.618,26.456-43.267,27.536-43.644c0.125-0.042,0.25-0.087,0.372-0.136l44.254-17.329c0.201,0.248,0.414,0.49,0.649,0.72     l23.214,22.609c1.51,1.471,3.534,2.293,5.64,2.293c0.042,0,0.085,0,0.127-0.001c2.151-0.033,4.201-0.924,5.693-2.473     l22.704-23.554l44.171,17.713c0.112,0.045,0.273,0.104,0.386,0.144c1.126,0.393,27.585,10.041,27.585,43.66v32.122h-66.491     h-57.389h-11.967h-10.043h-8.12c-4.466,0-8.084,3.62-8.084,8.084c0,4.466,3.618,8.084,8.084,8.084h8.12h10.043h11.967h57.389     h74.575c4.466,0,8.084-3.698,8.084-8.163v-40.128C512,427.524,487.073,409.431,473.678,404.818z M455.651,301.343     c5.781,1.061,10.179,6.127,10.179,12.208s-4.398,11.145-10.179,12.207V301.343z M336.192,269.044     c0.001-31.039,25.254-56.292,56.294-56.292h5.365c31.039,0,56.291,25.253,56.291,56.292v13.202     c-0.011-0.015-0.023-0.028-0.032-0.043c-0.074-0.103-0.149-0.206-0.229-0.306c-0.077-0.096-0.156-0.188-0.238-0.279     c-0.093-0.107-0.186-0.211-0.285-0.314c-0.077-0.079-0.158-0.154-0.238-0.231c-0.11-0.104-0.22-0.206-0.336-0.305     c-0.081-0.068-0.165-0.131-0.248-0.197c-0.121-0.095-0.243-0.189-0.37-0.277c-0.092-0.064-0.186-0.122-0.281-0.181     c-0.123-0.079-0.247-0.157-0.375-0.229c-0.112-0.064-0.23-0.12-0.345-0.178c-0.115-0.057-0.23-0.115-0.347-0.167     c-0.141-0.063-0.287-0.115-0.431-0.169c-0.101-0.038-0.203-0.078-0.305-0.111c-0.163-0.054-0.331-0.097-0.497-0.14     c-0.075-0.021-0.148-0.045-0.224-0.064c-17.592-4.002-23.099-26.746-23.147-26.949c-0.702-3.099-3.153-5.499-6.266-6.135     c-3.111-0.641-6.309,0.607-8.17,3.182c-21.27,29.407-68.086,29.701-68.733,29.701c0,0-0.002,0-0.003,0c-0.011,0-0.021,0-0.03,0     c-0.278,0-0.554,0.015-0.825,0.042c-0.085,0.009-0.167,0.026-0.252,0.038c-0.184,0.024-0.369,0.047-0.549,0.084     c-0.115,0.024-0.227,0.059-0.342,0.087c-0.144,0.036-0.291,0.066-0.431,0.111c-0.131,0.041-0.257,0.094-0.385,0.141     c-0.117,0.043-0.239,0.081-0.355,0.129c-0.148,0.063-0.289,0.136-0.43,0.206c-0.092,0.045-0.185,0.084-0.275,0.133     c-0.146,0.079-0.282,0.168-0.423,0.255c-0.08,0.05-0.164,0.095-0.244,0.148c-0.13,0.088-0.253,0.186-0.379,0.282     c-0.081,0.061-0.165,0.118-0.244,0.182c-0.113,0.094-0.219,0.196-0.327,0.294c-0.083,0.075-0.169,0.147-0.248,0.225     c-0.1,0.1-0.191,0.207-0.285,0.312c-0.079,0.087-0.162,0.17-0.238,0.261c-0.084,0.102-0.16,0.211-0.239,0.319     c-0.076,0.101-0.156,0.198-0.227,0.303c-0.044,0.065-0.081,0.134-0.123,0.201V269.044z M334.929,301.286v24.529     c-5.958-0.913-10.541-6.056-10.541-12.263C324.387,307.342,328.97,302.199,334.929,301.286z M363.867,385.937l-48.183,18.87     c-2.681,0.921-5.828,2.393-9.145,4.432c-0.443-0.075-0.896-0.123-1.36-0.123H16.168V309.83H308.47     c-0.16,1.219-0.25,2.459-0.25,3.721c0,15.764,12.827,28.589,28.593,28.589c0.07,0,0.14-0.009,0.21-0.011     c4.09,14.444,13.905,26.508,26.844,33.543V385.937z M410.544,391.582c0,0.01,0,0.019,0,0.028v0.918l-15.562,16.147     l-14.947-14.559v-12.717c3.29,0.613,6.675,0.95,10.14,0.95h10.231c3.464,0,6.85-0.335,10.138-0.949V391.582z M400.408,366.18     h-10.231c-21.548,0-39.079-17.531-39.079-39.078v-32.491c14.111-1.216,43.491-6.065,64.431-25.453     c4.284,8.459,11.733,18.656,23.954,23.66v34.285C439.482,348.65,421.954,366.18,400.408,366.18z" fill="#8bc34a"/>
			<path d="M82.589,47.106c4.465,0,8.084-3.618,8.084-8.084c0-4.466-3.62-8.084-8.084-8.084H41.813     c-4.465,0-8.084,3.618-8.084,8.084v53.581c0,4.466,3.62,8.084,8.084,8.084h56.211c4.465,0,8.084-3.619,8.084-8.084V78.146     c0-4.466-3.62-8.084-8.084-8.084c-4.465,0-8.084,3.619-8.084,8.084v6.371H49.897V47.106H82.589z" fill="#8bc34a"/>
			<path d="M113.825,33.139c-3.25-3.062-8.366-2.91-11.428,0.339L75.544,61.97l-8.301-9.042c-3.019-3.291-8.134-3.507-11.422-0.489     c-3.289,3.02-3.507,8.134-0.489,11.422L69.51,79.306c1.519,1.655,3.657,2.603,5.903,2.618c0.018,0,0.036,0,0.053,0     c2.226,0,4.355-0.918,5.883-2.539l32.813-34.818C117.225,41.318,117.073,36.2,113.825,33.139z" fill="#8bc34a"/>
			<path d="M82.589,193.935c4.465,0,8.084-3.618,8.084-8.084c0-4.466-3.62-8.084-8.084-8.084H41.813     c-4.465,0-8.084,3.618-8.084,8.084v53.581c0,4.466,3.62,8.084,8.084,8.084h56.211c4.465,0,8.084-3.618,8.084-8.084v-14.456     c0-4.466-3.62-8.084-8.084-8.084c-4.465,0-8.084,3.618-8.084,8.084v6.371H49.897v-37.413H82.589z" fill="#8bc34a"/>
			<path d="M113.825,179.967c-3.25-3.062-8.366-2.91-11.428,0.34l-26.853,28.492l-8.301-9.042     c-3.019-3.292-8.134-3.507-11.422-0.489c-3.289,3.02-3.507,8.134-0.489,11.422l14.179,15.445     c1.519,1.655,3.657,2.603,5.903,2.618c0.018,0,0.036,0,0.053,0c2.226,0,4.355-0.918,5.883-2.539l32.813-34.818     C117.225,188.147,117.073,183.03,113.825,179.967z" fill="#8bc34a"/>
			<path d="M98.024,363.723c-4.465,0-8.084,3.618-8.084,8.084v6.371H49.897v-37.413h32.693c4.465,0,8.084-3.62,8.084-8.084     c0-4.466-3.62-8.084-8.084-8.084H41.813c-4.465,0-8.084,3.618-8.084,8.084v53.581c0,4.466,3.62,8.084,8.084,8.084h56.211     c4.465,0,8.084-3.618,8.084-8.084v-14.456C106.108,367.341,102.488,363.723,98.024,363.723z" fill="#8bc34a"/>
			<path d="M102.397,327.138L75.544,355.63l-8.301-9.042c-3.019-3.292-8.134-3.506-11.422-0.489     c-3.289,3.02-3.507,8.134-0.489,11.422l14.179,15.445c1.519,1.655,3.657,2.603,5.903,2.618c0.018,0,0.036,0,0.053,0     c2.226,0,4.355-0.918,5.883-2.539l32.813-34.818c3.062-3.249,2.91-8.366-0.338-11.428     C110.575,323.736,105.459,323.888,102.397,327.138z" fill="#8bc34a"/>
			<path d="M8.084,131.625h358.939c4.466,0,8.084-3.618,8.084-8.084V8.084c0-4.466-3.618-8.084-8.084-8.084h-24.01     c-4.466,0-8.084,3.619-8.084,8.084s3.619,8.084,8.084,8.084h15.926v99.287H16.168V16.168h299.785     c4.466,0,8.084-3.619,8.084-8.084S320.419,0,315.954,0H8.084C3.62,0,0,3.62,0,8.084V123.54C0,128.005,3.62,131.625,8.084,131.625     z" fill="#8bc34a"/>
		</g>
	</g>
</g>
<g>
</g>
<g>
</g>
<g>
</g>
<g>
</g>
<g>
</g>
<g>
</g>
<g>
</g>
<g>
</g>
<g>
</g>
<g>
</g>
<g>
</g>
<g>
</g>
<g>
</g>
<g>
</g>
<g>
</g>
</svg>
